# vi:set nowrap:
#
# $Id: gravel.data 38 2014-02-12 14:44:53Z nicb $
#
# Nicola Bernardini - Recordare (1999)
#
# gravel data description file
#
# Format:
#
# - any line starting with a '#' is a comment
# - any line starting with a '##' is a comment carried into the text
# - any other line will be in the following format:
#
#   <tag>|<data>|...
#
#   where tags (and relative data) may be what follows:
#
#   voice|at|end|rate|note|xpos|ypos|<grain dur list>|gap hi|gap lo
#
#   where:
#
#   at = action time offset (may be 0, but the system will always add
#        a 'gravel_init_offset' seconds offset for system initialization)
#   end = action time end (the system will always add a 'gravel_init_offset'
#         seconds offset)
#   rate = repetition rate (+/- 'gravel_rate' randomness)
#   note = note in english notation (bf3 for B flat over middle C, etc.) 
#          (central notes are bf3 for female and e3 for male)
#   xpos = x position (may go from -34 for 34 meters to the left, to
#          34 for 34 meters to the right)
#   ypos = y position (may go from 40 for 40 meters in front, to -40
#          for 40 meters in the back)
#   <grain dur list> is a timed list for grain duration, which may be
#   in the following format:
#   <type>%<item>,<item>,...,<item>
#   where <type> can be 'l' for linear or 'e' for exponential segments
#   and <item> is in the following format:
#   <at>:<dur>:<grain duration>
#   where at = action time + 'gravel_init_offset', dur = duration of
#   the transition, grain duration = final grain duration
#   gap hi = granule high gap duration
#   gap lo = granule low gap duration
#   display flag = (0 = no variable display, 1 = variable display; only
#                   one voice at a time should be flagged)
#
voice|0|230.528|5|bf3|-3|2|l%0:0.001:0.0045,151.841:7.644:0.04,159.485:0.1:0.0045|0.18|0.07|1
voice|0.3|230.528|4.8|e3|4|-1|l%0:0.001:0.0045,151.841:7.644:0.065,159.485:0.1:0.0045|0.18|0.07|0
voice|0.15|230.528|3.7|c4|-4|-7|l%0:0.001:0.0045,151.841:7.644:0.04,159.485:0.1:0.0045|0.18|0.07|0
voice|0.22|230.528|4.1|d3|3|1|l%0:0.001:0.0045,151.841:7.644:0.065,159.485:0.1:0.0045|0.18|0.07|0
voice|0.1|230.528|6.4|bf3|0|5|l%0:0.001:0.0045,151.841:7.644:0.04,159.485:0.1:0.0045|0.18|0.07|0
voice|0.8|230.528|3.1|f3|0|-6|l%0:0.001:0.0045,151.841:7.644:0.065,159.485:0.1:0.0045|0.18|0.07|0
voice|0.5|230.528|5.4|c4|-5|9|l%0:0.001:0.0045,151.841:7.644:0.04,159.485:0.1:0.0045|0.18|0.07|0
voice|0.18|230.528|2.95|d3|10|-4|l%0:0.001:0.0045,151.841:7.644:0.065,159.485:0.1:0.0045|0.18|0.07|0
##
## second section
##
voice|268.364|392|5.00|bf3|-3|2|e%268.362:0.001:0.0045,334.469:57.68:2.8,392.164:0.1:0.0045|0.18|0.05|1
voice|268.385|392|4.90|e3|4|-3|e%268.362:0.001:0.0045,334.469:57.68:2.8,392.164:0.1:0.0045|0.18|0.05|0
voice|269.120|392|4.80|c4|-5|-4|e%268.362:0.001:0.0045,334.469:57.68:2.8,392.164:0.1:0.0045|0.18|0.05|0
voice|268.372|392|3.67|d3|6|5|e%268.362:0.001:0.0045,334.469:57.68:2.8,392.164:0.1:0.0045|0.18|0.05|0
voice|268.652|392|2.95|bf3|0|6|e%268.362:0.001:0.0045,334.469:57.68:2.8,392.164:0.1:0.0045|0.18|0.05|0
voice|268.755|392|3.99|e3|0|-7|e%268.362:0.001:0.0045,334.469:57.68:2.8,392.164:0.1:0.0045|0.18|0.05|0
voice|268.391|392|4.61|c4|-9|-8|e%268.362:0.001:0.0045,334.469:57.68:2.8,392.164:0.1:0.0045|0.18|0.05|0
voice|268.676|392|6.21|d3|10|9|e%268.362:0.001:0.0045,334.469:57.68:2.8,392.164:0.1:0.0045|0.18|0.05|0
voice|268.544|392|7.42|bf3|-0.5|10|e%268.362:0.001:0.0045,334.469:57.68:2.8,392.164:0.1:0.0045|0.18|0.05|0
voice|268.895|392|6.21|e3|0.4|-11|e%268.362:0.001:0.0045,334.469:57.68:2.8,392.164:0.1:0.0045|0.18|0.05|0
voice|268.921|392|5.55|c4|-13|-12|e%268.362:0.001:0.0045,334.469:57.68:2.8,392.164:0.1:0.0045|0.18|0.05|0
voice|268.375|392|5.13|d3|14|13|e%268.362:0.001:0.0045,334.469:57.68:2.8,392.164:0.1:0.0045|0.18|0.05|0
voice|268.988|392|8.21|bf3|-15|14|e%268.362:0.001:0.0045,334.469:57.68:2.8,392.164:0.1:0.0045|0.18|0.05|0
#
# $Log: gravel.data,v $
# Revision 0.0  1999/09/17 09:46:45  nicb
# Initial Revision
#
