#
# $Id: choral.data 38 2014-02-12 14:44:53Z nicb $
#
# This is supposed to be filtered by the choral.pl perl script to produce
# the appropriate csound score
#
# The format currently is: pipe separated fields with the following
#
# <chord no.>|<voice>|<note>|<vowel>|<dyn>
#
# where:	<chord no.>	is the chord number
#		<voice>		is the voice type (SATB)
#		<note>		is the note to be sung (c3, d#4, bf2, etc.)
#		<vowel>		is the vowel to be sung ('a', 'e', etc.)
#		<dyn>		is the dynamics (pp, p, f etc.)
#
1|S|bf3|a|mf
1|A|d3|a|mf
1|T|f2|a|mf
1|B|bf1|a|mf
#
2|S|bf3|a|mf
2|A|f3|a|mf
2|T|d3|a|mf
2|B|bf2|a|mf
#
3|S|d4|a|mf
3|A|bf3|a|mf
3|T|f3|a|mf
3|B|bf2|a|mf
#
4|S|c4|a|mf
4|A|a3|a|mf
4|T|f3|a|mf
4|B|f2|a|mf
#
5|S|bf3|a|mf
5|A|g3|a|mf
5|T|d3|a|mf
5|B|g2|a|mf
#
6|S|a3|a|mf
6|A|f#3|a|mf
6|T|d3|a|mf
6|B|d2|a|mf
#
7|S|g3|a|mf
7|A|ef3|a|mf
7|T|c3|a|mf
7|B|c2|a|mf
#
8|S|g3|a|mf
8|A|f3|a|mf
8|T|d3|a|mf
8|B|b1|a|mf
#
9|S|g3|a|mf
9|A|ef3|a|mf
9|T|g2|a|mf
9|B|c2|a|mf
#
# $Log$
